{
  "swagger": "2.0",
  "info": {
    "version": "1.0.0",
    "title": "REST API",
    "description": ""
  },
  "host": "localhost:3000",
  "basePath": "/",
  "schemes": [
    "http"
  ],
  "paths": {
    "/api-docs": {
      "get": {
        "description": "",
        "parameters": [],
        "responses": {}
      }
    },
    "/config/edit": {
      "post": {
        "tags": [
          "Config"
        ],
        "summary": "Modify the configuration about the torrent client",
        "description": "",
        "parameters": [
          {
            "name": "config",
            "in": "body",
            "description": "Configuration of the client",
            "schema": {
              "type": "object",
              "properties": {
                "path": {
                  "type": "string",
                  "example": "./"
                }
              },
              "required": [
                "path"
              ]
            }
          }
        ],
        "responses": {
          "200": {
            "description": "Set the path",
            "schema": {
              "type": "boolean",
              "example": true,
              "xml": {
                "name": "main"
              }
            }
          }
        }
      }
    },
    "/config/": {
      "get": {
        "tags": [
          "Config"
        ],
        "summary": "Return the configuration of the torrent",
        "description": "",
        "parameters": [],
        "responses": {
          "200": {
            "description": "The configuration",
            "schema": {
              "type": "boolean",
              "example": true,
              "xml": {
                "name": "main"
              }
            }
          }
        }
      }
    },
    "/torrent/add": {
      "post": {
        "tags": [
          "Downloads"
        ],
        "summary": "Add a torrent to the list",
        "description": "",
        "parameters": [
          {
            "name": "torrent",
            "in": "body",
            "description": "Add a torrent",
            "schema": {
              "type": "object",
              "properties": {
                "magnet": {
                  "type": "string",
                  "example": "magnet:?xt=urn:btih:08ada5a7a6183aae1e09d831df6748d566095a10&dn=Sintel&tr=udp%3A%2F%2Fexplodie.org%3A6969&tr=udp%3A%2F%2Ftracker.coppersurfer.tk%3A6969&tr=udp%3A%2F%2Ftracker.empire-js.us%3A1337&tr=udp%3A%2F%2Ftracker.leechers-paradise.org%3A6969&tr=udp%3A%2F%2Ftracker.opentrackr.org%3A1337&tr=wss%3A%2F%2Ftracker.btorrent.xyz&tr=wss%3A%2F%2Ftracker.fastcast.nz&tr=wss%3A%2F%2Ftracker.openwebtorrent.com&ws=https%3A%2F%2Fwebtorrent.io%2Ftorrents%2F&xs=https%3A%2F%2Fwebtorrent.io%2Ftorrents%2Fsintel.torrent"
                }
              },
              "required": [
                "magnet"
              ]
            }
          }
        ],
        "responses": {
          "200": {
            "description": "OK"
          }
        }
      }
    },
    "/torrent/pause": {
      "post": {
        "tags": [
          "Downloads"
        ],
        "summary": "Pause a torrent in the list",
        "description": "",
        "parameters": [
          {
            "name": "torrent",
            "in": "body",
            "description": "Pause a torrent",
            "schema": {
              "type": "object",
              "properties": {
                "magnet": {
                  "type": "string",
                  "example": "magnet:?xt=urn:btih:08ada5a7a6183aae1e09d831df6748d566095a10&dn=Sintelbuild&tr=udp%3A%2F%2Fexplodie.org%3A6969&tr=udp%3A%2F%2Ftracker.coppersurfer.tk%3A6969&tr=udp%3A%2F%2Ftracker.empire-js.us%3A1337&tr=udp%3A%2F%2Ftracker.leechers-paradise.org%3A6969&tr=udp%3A%2F%2Ftracker.opentrackr.org%3A1337&tr=wss%3A%2F%2Ftracker.btorrent.xyz&tr=wss%3A%2F%2Ftracker.fastcast.nz&tr=wss%3A%2F%2Ftracker.openwebtorrent.com&ws=https%3A%2F%2Fwebtorrent.io%2Ftorrents%2F&xs=https%3A%2F%2Fwebtorrent.io%2Ftorrents%2Fsintel.torrent"
                }
              },
              "required": [
                "magnet"
              ]
            }
          }
        ],
        "responses": {
          "200": {
            "description": "A single torrent information",
            "schema": {
              "type": "array",
              "items": {
                "type": "object",
                "properties": {
                  "magnet": {
                    "type": "string",
                    "example": "magnet:?xt=urn:btih:08ada5a7a6183aae1e09d831df6748d566095a10&dn=Sintel&tr=udp%3A%2F%2Fexplodie.org%3A6969&tr=udp%3A%2F%2Ftracker.coppersurfer.tk%3A6969&tr=udp%3A%2F%2Ftracker.empire-js.us%3A1337&tr=udp%3A%2F%2Ftracker.leechers-paradise.org%3A6969&tr=udp%3A%2F%2Ftracker.opentrackr.org%3A1337&tr=wss%3A%2F%2Ftracker.btorrent.xyz&tr=wss%3A%2F%2Ftracker.fastcast.nz&tr=wss%3A%2F%2Ftracker.openwebtorrent.com&ws=https%3A%2F%2Fwebtorrent.io%2Ftorrents%2F&xs=https%3A%2F%2Fwebtorrent.io%2Ftorrents%2Fsintel.torrent"
                  }
                },
                "required": [
                  "magnet"
                ]
              },
              "xml": {
                "name": "main"
              }
            }
          }
        }
      }
    },
    "/torrent/check-status": {
      "get": {
        "tags": [
          "Downloads"
        ],
        "summary": "Check the status of the torrents",
        "description": "It returns all the detail about the torrent",
        "parameters": [],
        "responses": {
          "200": {
            "description": "OK"
          }
        }
      },
      "post": {
        "tags": [
          "Downloads"
        ],
        "summary": "Check the status of a single torrent",
        "description": "It returns all the detail about the torrent",
        "parameters": [
          {
            "name": "torrent",
            "in": "body",
            "description": "Id of the torrent",
            "schema": {
              "type": "object",
              "properties": {
                "magnet": {
                  "type": "string",
                  "example": "magnet:?xt=urn:btih:08ada5a7a6183aae1e09d831df6748d566095a10&dn=Sintel&tr=udp%3A%2F%2Fexplodie.org%3A6969&tr=udp%3A%2F%2Ftracker.coppersurfer.tk%3A6969&tr=udp%3A%2F%2Ftracker.empire-js.us%3A1337&tr=udp%3A%2F%2Ftracker.leechers-paradise.org%3A6969&tr=udp%3A%2F%2Ftracker.opentrackr.org%3A1337&tr=wss%3A%2F%2Ftracker.btorrent.xyz&tr=wss%3A%2F%2Ftracker.fastcast.nz&tr=wss%3A%2F%2Ftracker.openwebtorrent.com&ws=https%3A%2F%2Fwebtorrent.io%2Ftorrents%2F&xs=https%3A%2F%2Fwebtorrent.io%2Ftorrents%2Fsintel.torrent"
                }
              },
              "required": [
                "magnet"
              ]
            }
          }
        ],
        "responses": {
          "200": {
            "description": "OK"
          }
        }
      }
    },
    "/torrent/get-file/{filename}": {
      "get": {
        "tags": [
          "Downloads"
        ],
        "summary": "Return the torrent file of selected value",
        "description": "From the infoHash return the file to download",
        "parameters": [
          {
            "name": "filename",
            "in": "path",
            "required": true,
            "type": "string"
          },
          {
            "name": "torrentId",
            "in": "query",
            "type": "string"
          }
        ],
        "responses": {
          "200": {
            "description": "The torrent file"
          }
        }
      }
    },
    "/torrent/destroy": {
      "post": {
        "tags": [
          "Downloads"
        ],
        "summary": "Remove a torrent in the list",
        "description": "",
        "parameters": [
          {
            "name": "torrent",
            "in": "body",
            "description": "Remove a torrent and destroy data",
            "schema": {
              "type": "object",
              "properties": {
                "magnet": {
                  "type": "string",
                  "example": "magnet:?xt=urn:btih:08ada5a7a6183aae1e09d831df6748d566095a10&dn=Sintel&tr=udp%3A%2F%2Fexplodie.org%3A6969&tr=udp%3A%2F%2Ftracker.coppersurfer.tk%3A6969&tr=udp%3A%2F%2Ftracker.empire-js.us%3A1337&tr=udp%3A%2F%2Ftracker.leechers-paradise.org%3A6969&tr=udp%3A%2F%2Ftracker.opentrackr.org%3A1337&tr=wss%3A%2F%2Ftracker.btorrent.xyz&tr=wss%3A%2F%2Ftracker.fastcast.nz&tr=wss%3A%2F%2Ftracker.openwebtorrent.com&ws=https%3A%2F%2Fwebtorrent.io%2Ftorrents%2F&xs=https%3A%2F%2Fwebtorrent.io%2Ftorrents%2Fsintel.torrent"
                }
              },
              "required": [
                "magnet"
              ]
            }
          }
        ],
        "responses": {
          "200": {
            "description": "A single torrent information",
            "schema": {
              "type": "array",
              "items": {
                "type": "object",
                "properties": {
                  "magnet": {
                    "type": "string",
                    "example": "magnet:?xt=urn:btih:08ada5a7a6183aae1e09d831df6748d566095a10&dn=Sintel&tr=udp%3A%2F%2Fexplodie.org%3A6969&tr=udp%3A%2F%2Ftracker.coppersurfer.tk%3A6969&tr=udp%3A%2F%2Ftracker.empire-js.us%3A1337&tr=udp%3A%2F%2Ftracker.leechers-paradise.org%3A6969&tr=udp%3A%2F%2Ftracker.opentrackr.org%3A1337&tr=wss%3A%2F%2Ftracker.btorrent.xyz&tr=wss%3A%2F%2Ftracker.fastcast.nz&tr=wss%3A%2F%2Ftracker.openwebtorrent.com&ws=https%3A%2F%2Fwebtorrent.io%2Ftorrents%2F&xs=https%3A%2F%2Fwebtorrent.io%2Ftorrents%2Fsintel.torrent"
                  }
                },
                "required": [
                  "magnet"
                ]
              },
              "xml": {
                "name": "main"
              }
            }
          }
        }
      }
    },
    "/torrent/remove": {
      "post": {
        "tags": [
          "Downloads"
        ],
        "summary": "Remove a torrent in the list, keeping the data",
        "description": "",
        "parameters": [
          {
            "name": "torrent",
            "in": "body",
            "description": "Remove a torrent and keep data",
            "schema": {
              "type": "object",
              "properties": {
                "magnet": {
                  "type": "string",
                  "example": "magnet:?xt=urn:btih:08ada5a7a6183aae1e09d831df6748d566095a10&dn=Sintel&tr=udp%3A%2F%2Fexplodie.org%3A6969&tr=udp%3A%2F%2Ftracker.coppersurfer.tk%3A6969&tr=udp%3A%2F%2Ftracker.empire-js.us%3A1337&tr=udp%3A%2F%2Ftracker.leechers-paradise.org%3A6969&tr=udp%3A%2F%2Ftracker.opentrackr.org%3A1337&tr=wss%3A%2F%2Ftracker.btorrent.xyz&tr=wss%3A%2F%2Ftracker.fastcast.nz&tr=wss%3A%2F%2Ftracker.openwebtorrent.com&ws=https%3A%2F%2Fwebtorrent.io%2Ftorrents%2F&xs=https%3A%2F%2Fwebtorrent.io%2Ftorrents%2Fsintel.torrent"
                }
              },
              "required": [
                "magnet"
              ]
            }
          }
        ],
        "responses": {
          "200": {
            "description": "A single torrent information",
            "schema": {
              "type": "array",
              "items": {
                "type": "object",
                "properties": {
                  "magnet": {
                    "type": "string",
                    "example": "magnet:?xt=urn:btih:08ada5a7a6183aae1e09d831df6748d566095a10&dn=Sintel&tr=udp%3A%2F%2Fexplodie.org%3A6969&tr=udp%3A%2F%2Ftracker.coppersurfer.tk%3A6969&tr=udp%3A%2F%2Ftracker.empire-js.us%3A1337&tr=udp%3A%2F%2Ftracker.leechers-paradise.org%3A6969&tr=udp%3A%2F%2Ftracker.opentrackr.org%3A1337&tr=wss%3A%2F%2Ftracker.btorrent.xyz&tr=wss%3A%2F%2Ftracker.fastcast.nz&tr=wss%3A%2F%2Ftracker.openwebtorrent.com&ws=https%3A%2F%2Fwebtorrent.io%2Ftorrents%2F&xs=https%3A%2F%2Fwebtorrent.io%2Ftorrents%2Fsintel.torrent"
                  }
                },
                "required": [
                  "magnet"
                ]
              },
              "xml": {
                "name": "main"
              }
            }
          }
        }
      }
    },
    "/stream/upload": {
      "post": {
        "tags": [
          "Stream"
        ],
        "summary": "Upload to a remote a single file",
        "description": "",
        "parameters": [
          {
            "name": "body",
            "in": "body",
            "schema": {
              "type": "object",
              "properties": {
                "magnet": {
                  "example": "any"
                },
                "fileName": {
                  "example": "any"
                }
              }
            }
          }
        ],
        "responses": {
          "200": {
            "description": "Result of the operation",
            "schema": {
              "type": "object",
              "properties": {
                "files": {
                  "type": "array",
                  "items": {
                    "type": "object",
                    "properties": {
                      "name": {
                        "type": "string",
                        "example": "xxx.mp4"
                      },
                      "size": {
                        "type": "number",
                        "example": 11111
                      },
                      "url": {
                        "type": "string",
                        "example": "https://domain.com/mcurg8n382uy"
                      },
                      "deleteUrl": {
                        "type": "string",
                        "example": "https://domain.com/mcurg8n382uy?killcode=agdt0meepz"
                      }
                    }
                  }
                }
              },
              "xml": {
                "name": "main"
              }
            }
          },
          "404": {
            "description": "Not Found"
          },
          "405": {
            "description": "Method Not Allowed"
          }
        }
      }
    },
    "/stream/check-existing": {
      "post": {
        "tags": [
          "Stream"
        ],
        "summary": "Upload to a remote a single file",
        "description": "",
        "parameters": [
          {
            "name": "body",
            "in": "body",
            "schema": {
              "type": "object",
              "properties": {
                "magnet": {
                  "example": "any"
                },
                "fileName": {
                  "example": "any"
                }
              }
            }
          }
        ],
        "responses": {
          "200": {
            "description": "Result of the operation",
            "schema": {
              "type": "object",
              "properties": {
                "files": {
                  "type": "array",
                  "items": {
                    "type": "object",
                    "properties": {
                      "name": {
                        "type": "string",
                        "example": "xxx.mp4"
                      },
                      "size": {
                        "type": "number",
                        "example": 11111
                      },
                      "url": {
                        "type": "string",
                        "example": "https://domain.com/mcurg8n382uy"
                      },
                      "deleteUrl": {
                        "type": "string",
                        "example": "https://domain.com/mcurg8n382uy?killcode=agdt0meepz"
                      }
                    }
                  }
                }
              },
              "xml": {
                "name": "main"
              }
            }
          },
          "404": {
            "description": "Not Found"
          },
          "405": {
            "description": "Method Not Allowed"
          }
        }
      }
    },
    "/stream/config": {
      "get": {
        "tags": [
          "Stream"
        ],
        "summary": "Retrieve the configuration about streaming",
        "description": "",
        "parameters": [],
        "responses": {
          "200": {
            "description": "Configuration data",
            "schema": {
              "type": "object",
              "properties": {
                "uptobox": {
                  "type": "object",
                  "properties": {
                    "token": {
                      "type": "string",
                      "example": "xxxxxxx"
                    }
                  }
                }
              },
              "required": [
                "uptobox"
              ],
              "xml": {
                "name": "main"
              }
            }
          }
        }
      },
      "post": {
        "tags": [
          "Stream"
        ],
        "summary": "Update the configuration about streaming platform",
        "description": "",
        "parameters": [
          {
            "name": "conf",
            "in": "body",
            "description": "Data about configuration (Only uptobox available now",
            "schema": {
              "type": "object",
              "properties": {
                "uploadEnabled": {
                  "type": "boolean",
                  "example": false
                },
                "uptobox": {
                  "type": "object",
                  "properties": {
                    "token": {
                      "type": "string",
                      "example": "xxxxxxx"
                    }
                  }
                }
              },
              "required": [
                "uploadEnabled",
                "uptobox"
              ]
            }
          }
        ],
        "responses": {
          "200": {
            "description": "Configuration data",
            "schema": {
              "type": "object",
              "properties": {
                "uptobox": {
                  "type": "object",
                  "properties": {
                    "token": {
                      "type": "string",
                      "example": "xxxxxxx"
                    }
                  }
                }
              },
              "required": [
                "uptobox"
              ],
              "xml": {
                "name": "main"
              }
            }
          }
        }
      }
    },
    "/category/": {
      "get": {
        "tags": [
          "Category"
        ],
        "summary": "Get all the category that identify the default path for that category",
        "description": "",
        "parameters": [],
        "responses": {
          "200": {
            "description": "OK"
          }
        }
      },
      "post": {
        "tags": [
          "Category"
        ],
        "summary": "Create a category",
        "description": "",
        "parameters": [],
        "responses": {
          "200": {
            "description": "If the operation gone fine",
            "schema": {
              "type": "boolean",
              "example": true,
              "xml": {
                "name": "main"
              }
            }
          }
        }
      }
    },
    "/file/list": {
      "get": {
        "tags": [
          "Files"
        ],
        "summary": "Return the list of the file contained in the torrent",
        "description": "",
        "parameters": [],
        "responses": {
          "200": {
            "description": "Configuration data",
            "schema": {
              "type": "array",
              "items": {
                "type": "object",
                "properties": {
                  "done": {
                    "type": "boolean",
                    "example": true
                  },
                  "streamable": {
                    "type": "boolean",
                    "example": true
                  },
                  "name": {
                    "type": "boolean",
                    "example": true
                  },
                  "id": {
                    "type": "string",
                    "example": "asdkjasndlas - Nome"
                  }
                }
              },
              "xml": {
                "name": "main"
              }
            }
          }
        }
      }
    },
    "/file/open": {
      "get": {
        "tags": [
          "files"
        ],
        "summary": "Open the file in the local system",
        "description": "",
        "parameters": [
          {
            "name": "fileid",
            "in": "query",
            "type": "string"
          }
        ],
        "responses": {
          "200": {
            "description": "OK"
          }
        }
      }
    },
    "/file/stream/{filename}": {
      "get": {
        "tags": [
          "files"
        ],
        "summary": "Open the file in the local system",
        "description": "",
        "parameters": [
          {
            "name": "filename",
            "in": "path",
            "required": true,
            "type": "string"
          },
          {
            "name": "fileid",
            "in": "query",
            "type": "string"
          }
        ],
        "responses": {
          "200": {
            "description": "OK"
          }
        }
      }
    },
    "/file/search": {
      "get": {
        "tags": [
          "Files"
        ],
        "summary": "Return a search = require( indexed torrent, based on searx",
        "description": "",
        "parameters": [
          {
            "name": "q",
            "in": "query",
            "type": "string"
          }
        ],
        "responses": {
          "200": {
            "description": "Configuration data",
            "schema": {
              "type": "array",
              "items": {
                "type": "object",
                "properties": {
                  "url": {
                    "type": "string",
                    "example": "https://xxx.xxx/description.php?id=56842669"
                  },
                  "title": {
                    "type": "string",
                    "example": "Texas Chainsaw Massacre (2022) [720p] [WEBRip]"
                  },
                  "seed": {
                    "type": "string",
                    "example": "91"
                  },
                  "leech": {
                    "type": "string",
                    "example": "31"
                  },
                  "magnetlink": {
                    "type": "string",
                    "example": "magnet:?xt=urn:btih:08ada5a7a6183aae1e09d831df6748d566095a10&dn=Sintel&tr=udp://tracker.leechers-paradise.org:6969&tr=udp://tracker.coppersurfer.tk:6969&tr=udp://tracker.opentrackr.org:1337&tr=udp://explodie.org:6969&tr=udp://tracker.empire-js.us:1337&tr=wss://tracker.btorrent.xyz&tr=wss://tracker.openwebtorrent.com&ws=https://webtorrent.io/torrents/&xs=https://webtorrent.io/torrents/sintel.torrent"
                  },
                  "template": {
                    "type": "string",
                    "example": "torrent.html"
                  },
                  "publishedDate": {
                    "type": "string",
                    "example": "Feb 19, 2022"
                  },
                  "filesize": {
                    "type": "number",
                    "example": 799469148
                  },
                  "engine": {
                    "type": "string",
                    "example": "xxx"
                  },
                  "parsed_url": {
                    "type": "array",
                    "example": [
                      "https",
                      "xxx.xxx",
                      "/description.php",
                      "",
                      "id=56842669",
                      ""
                    ],
                    "items": {
                      "type": "string"
                    }
                  },
                  "engines": {
                    "type": "array",
                    "example": [
                      "xxx"
                    ],
                    "items": {
                      "type": "string"
                    }
                  },
                  "positions": {
                    "type": "array",
                    "example": [
                      7
                    ],
                    "items": {
                      "type": "number"
                    }
                  },
                  "score": {
                    "type": "number",
                    "example": 0.14285714285714285
                  },
                  "category": {
                    "type": "string",
                    "example": "videos"
                  },
                  "pretty_url": {
                    "type": "string",
                    "example": "https://xxx.xxx/description.php?id=56842669"
                  },
                  "pubdate": {
                    "type": "string",
                    "example": "2022-02-19 03:35:55"
                  }
                }
              },
              "xml": {
                "name": "main"
              }
            }
          }
        }
      }
    },
    "/file/games/{source}/": {
      "get": {
        "tags": [
          "Files"
        ],
        "summary": "Indexed search of games parsed = require( games website",
        "description": "",
        "parameters": [
          {
            "name": "source",
            "in": "path",
            "required": true,
            "type": "string"
          },
          {
            "name": "q",
            "in": "query",
            "type": "string"
          }
        ],
        "responses": {
          "200": {
            "description": "OK"
          }
        }
      }
    }
  }
}